Introduction of usfertilizer, an R package • usfertilizer
…
Comments and Questions.

If you have any problems or questions, feel free to open an issue here.

Lisence

GPL

us_fertilizer_county %>% 
  select(Year) %>% 
   group_by(Year) %>% 
  filter(row_number() ==1) %>% 
  arrange(Year)
#> # A tibble: 68 x 1
#> # Groups:   Year [68]
#>    Year 
#>    <chr>
#>  1 1945 
#>  2 1946 
#>  3 1947 
#>  4 1948 
#>  5 1949 
#>  6 1950 
#>  7 1951 
#>  8 1952 
#>  9 1953 
#> 10 1954 
#> # ... with 58 more rows
…
